{
  "authorization": {
    "enabled":  true,
    "method": "dotstat",
    "PrincipalFrom":  "context"
  },
  "DotStatSuiteCoreCommonDbConnectionString": "Data Source=SData Source=localhost;Initial Catalog=CommonDb;User ID=testLoginCommon;Password=testLogin(\!)Password",
  "mappingStore": {
    "Id": {
      "Default": "disseminate",
      "FromQueryParameter": "Never"
    }
  },
  "applyContentConstraintsOnDataQueries": true
}